{
    "type": "post",
    "url": "/naskah_nusantara/add",
    "title": "Add Naskah nusantara.",
    "version": "0.1.0",
    "name": "Addnaskah_nusantara",
    "group": "naskah_nusantara",
    "header": {
      "fields": {
        "Header": [
          {
            "group": "Header",
            "type": "String",
            "optional": false,
            "field": "X-Api-Key",
            "description": "<p>Naskah nusantara unique access-key.</p>"
          }
          ,
          {
            "group": "Header",
            "type": "String",
            "optional": false,
            "field": "X-Token",
            "description": "<p>Naskah nusantara unique token.</p>"
          }
                  ]
      }
    },
    "permission": [
      {
        "name": "Naskah nusantara Cant be Accessed permission name : api_naskah_nusantara_add"
      }
    ],
    "parameter": {
      "fields": {
        "Parameter": [
                    {
            "group": "Parameter",
            "type": "String",
            "optional": false,
            "field": "Jenis_bahan",
            "description": "<p>Mandatory jenis_bahan of Naskah nusantaras Input Jenis Bahan Max Length : 20..</p>"
          },
          {
            "group": "Parameter",
            "type": "String",
            "optional": false,
            "field": "Judul",
            "description": "<p>Mandatory judul of Naskah nusantaras Input Judul Max Length : 100..</p>"
          },
          {
            "group": "Parameter",
            "type": "String",
            "optional": false,
            "field": "Pengarang",
            "description": "<p>Mandatory pengarang of Naskah nusantaras Input Pengarang Max Length : 50..</p>"
          },
          {
            "group": "Parameter",
            "type": "String",
            "optional": false,
            "field": "Deskripsi_fisik",
            "description": "<p>Mandatory deskripsi_fisik of Naskah nusantaras Input Deskripsi Fisik Max Length : 255..</p>"
          },
          {
            "group": "Parameter",
            "type": "String",
            "optional": false,
            "field": "Informasi_teknis",
            "description": "<p>Mandatory informasi_teknis of Naskah nusantaras Input Informasi Teknis Max Length : 255..</p>"
          },
          {
            "group": "Parameter",
            "type": "String",
            "optional": false,
            "field": "Subjek",
            "description": "<p>Mandatory subjek of Naskah nusantaras Input Subjek Max Length : 20..</p>"
          },
          {
            "group": "Parameter",
            "type": "String",
            "optional": false,
            "field": "Abstrak",
            "description": "<p>Mandatory abstrak of Naskah nusantaras Input Abstrak Max Length : 150..</p>"
          },
          {
            "group": "Parameter",
            "type": "String",
            "optional": false,
            "field": "Catatan",
            "description": "<p>Mandatory catatan of Naskah nusantaras Input Catatan Max Length : 255..</p>"
          },
          {
            "group": "Parameter",
            "type": "String",
            "optional": false,
            "field": "File_cover",
            "description": "<p>Mandatory file_cover of Naskah nusantaras Input File Cover Max Length : 150..</p>"
          }
        ]
      }
    },
    "success": {
      "fields": {
        "Success 200": [
          {
            "group": "Success 200",
            "type": "Boolean",
            "optional": false,
            "field": "Status",
            "description": "<p>status response api.</p>"
          },
          {
            "group": "Success 200",
            "type": "String",
            "optional": false,
            "field": "Message",
            "description": "<p>message response api.</p>"
          }
        ]
      },
      "examples": [
        {
          "title": "Success-Response:",
          "content": "HTTP/1.1 200 OK",
          "type": "json"
        }
      ]
    },
    "error": {
      "fields": {
        "Error 4xx": [
          {
            "group": "Error 4xx",
            "optional": false,
            "field": "ValidationError",
            "description": "<p>Error validation.</p>"
          }
        ]
      },
      "examples": [
        {
          "title": "Error-Response:",
          "content": "HTTP/1.1 403 Not Acceptable",
          "type": "json"
        }
      ]
    },
    "filename": "application/controllers/api/Naskah_nusantara.php",
    "groupTitle": "Naskah nusantara"
  },
  {
    "type": "get",
    "url": "/naskah_nusantara/all",
    "title": "Get all Naskah nusantaras.",
    "version": "0.1.0",
    "name": "Allnaskah_nusantara",
    "group": "naskah_nusantara",
    "header": {
      "fields": {
        "Header": [
          {
            "group": "Header",
            "type": "String",
            "optional": false,
            "field": "X-Api-Key",
            "description": "<p>Naskah nusantaras unique access-key.</p>"
          },
          {
            "group": "Header",
            "type": "String",
            "optional": false,
            "field": "X-Token",
            "description": "<p>Naskah nusantaras unique token.</p>"
          }
        ]
      }
    },
    "permission": [
      {
        "name": "{} Cant be Accessed permission name : api_Naskah nusantara_all"
      }
    ],
    "parameter": {
      "fields": {
        "Parameter": [
         
          {
            "group": "Parameter",
            "type": "String",
            "optional": true,
            "field": "Field",
            "defaultValue": "All Field",
            "description": "<p>Optional field of Naskah nusantaras.</p>"
          },
          {
            "group": "Parameter",
            "type": "String",
            "optional": true,
            "field": "Start",
            "defaultValue": "0",
            "description": "<p>Optional start index of Naskah nusantaras.</p>"
          },
          {
            "group": "Parameter",
            "type": "String",
            "optional": true,
            "field": "Limit",
            "defaultValue": "10",
            "description": "<p>Optional limit data of Naskah nusantaras.</p>"
          }
        ]
      }
    },
    "success": {
      "fields": {
        "Success 200": [
          {
            "group": "Success 200",
            "type": "Boolean",
            "optional": false,
            "field": "Status",
            "description": "<p>status response api.</p>"
          },
          {
            "group": "Success 200",
            "type": "String",
            "optional": false,
            "field": "Message",
            "description": "<p>message response api.</p>"
          },
          {
            "group": "Success 200",
            "type": "Array",
            "optional": false,
            "field": "Data",
            "description": "<p>data of Naskah nusantara.</p>"
          }
        ]
      },
      "examples": [
        {
          "title": "Success-Response:",
          "content": "HTTP/1.1 200 OK",
          "type": "json"
        }
      ]
    },
    "error": {
      "fields": {
        "Error 4xx": [
          {
            "group": "Error 4xx",
            "optional": false,
            "field": "NoDataNaskah nusantara",
            "description": "<p>Naskah nusantara data is nothing.</p>"
          }
        ]
      },
      "examples": [
        {
          "title": "Error-Response:",
          "content": "HTTP/1.1 403 Not Acceptable",
          "type": "json"
        }
      ]
    },
    "filename": "application/controllers/api/Naskah nusantara.php",
    "groupTitle": "Naskah nusantara"
  },
  {
    "type": "post",
    "url": "/Naskah nusantara/delete",
    "title": "Delete Naskah nusantara.",
    "version": "0.1.0",
    "name": "Deletenaskah_nusantara",
    "group": "naskah_nusantara",
    "header": {
      "fields": {
        "Header": [
          {
            "group": "Header",
            "type": "String",
            "optional": false,
            "field": "X-Api-Key",
            "description": "<p>Naskah nusantaras unique access-key.</p>"
          },
          {
            "group": "Header",
            "type": "String",
            "optional": false,
            "field": "X-Token",
            "description": "<p>Naskah nusantaras unique token.</p>"
          }
        ]
      }
    },
    "permission": [
      {
        "name": "Naskah nusantara Cant be Accessed permission name : api_Naskah nusantara_delete"
      }
    ],
    "parameter": {
      "fields": {
        "Parameter": [
          {
            "group": "Parameter",
            "type": "Integer",
            "optional": false,
            "field": "Id",
            "description": "<p>Mandatory id of Naskah nusantaras .</p>"
          }
        ]
      }
    },
    "success": {
      "fields": {
        "Success 200": [
          {
            "group": "Success 200",
            "type": "Boolean",
            "optional": false,
            "field": "Status",
            "description": "<p>status response api.</p>"
          },
          {
            "group": "Success 200",
            "type": "String",
            "optional": false,
            "field": "Message",
            "description": "<p>message response api.</p>"
          }
        ]
      },
      "examples": [
        {
          "title": "Success-Response:",
          "content": "HTTP/1.1 200 OK",
          "type": "json"
        }
      ]
    },
    "error": {
      "fields": {
        "Error 4xx": [
          {
            "group": "Error 4xx",
            "optional": false,
            "field": "ValidationError",
            "description": "<p>Error validation.</p>"
          }
        ]
      },
      "examples": [
        {
          "title": "Error-Response:",
          "content": "HTTP/1.1 403 Not Acceptable",
          "type": "json"
        }
      ]
    },
    "filename": "application/controllers/api/Naskah nusantara.php",
    "groupTitle": "Naskah nusantara"
  },
  {
    "type": "get",
    "url": "/Naskah nusantara/detail",
    "title": "Detail Naskah nusantara.",
    "version": "0.1.0",
    "name": "Detailnaskah_nusantara",
    "group": "naskah_nusantara",
    "header": {
      "fields": {
        "Header": [
          {
            "group": "Header",
            "type": "String",
            "optional": false,
            "field": "X-Api-Key",
            "description": "<p>Naskah nusantaras unique access-key.</p>"
          },
          {
            "group": "Header",
            "type": "String",
            "optional": false,
            "field": "X-Token",
            "description": "<p>Naskah nusantaras unique token.</p>"
          }
        ]
      }
    },
    "permission": [
      {
        "name": "Naskah nusantara Cant be Accessed permission name : api_Naskah nusantara_detail"
      }
    ],
    "parameter": {
      "fields": {
        "Parameter": [
          {
            "group": "Parameter",
            "type": "Integer",
            "optional": false,
            "field": "Id",
            "description": "<p>Mandatory id of Naskah nusantaras.</p>"
          }
        ]
      }
    },
    "success": {
      "fields": {
        "Success 200": [
          {
            "group": "Success 200",
            "type": "Boolean",
            "optional": false,
            "field": "Status",
            "description": "<p>status response api.</p>"
          },
          {
            "group": "Success 200",
            "type": "String",
            "optional": false,
            "field": "Message",
            "description": "<p>message response api.</p>"
          },
          {
            "group": "Success 200",
            "type": "Array",
            "optional": false,
            "field": "Data",
            "description": "<p>data of Naskah nusantara.</p>"
          }
        ]
      },
      "examples": [
        {
          "title": "Success-Response:",
          "content": "HTTP/1.1 200 OK",
          "type": "json"
        }
      ]
    },
    "error": {
      "fields": {
        "Error 4xx": [
          {
            "group": "Error 4xx",
            "optional": false,
            "field": "Naskah nusantaraNotFound",
            "description": "<p>Naskah nusantara data is not found.</p>"
          }
        ]
      },
      "examples": [
        {
          "title": "Error-Response:",
          "content": "HTTP/1.1 403 Not Acceptable",
          "type": "json"
        }
      ]
    },
    "filename": "application/controllers/api/Naskah nusantara.php",
    "groupTitle": "Naskah nusantara"
  },
  {
    "type": "post",
    "url": "/Naskah nusantara/update",
    "title": "Update Naskah nusantara.",
    "version": "0.1.0",
    "name": "Updatenaskah_nusantara",
    "group": "naskah_nusantara",
    "header": {
      "fields": {
        "Header": [
          {
            "group": "Header",
            "type": "String",
            "optional": false,
            "field": "X-Api-Key",
            "description": "<p>Naskah nusantaras unique access-key.</p>"
          },
          {
            "group": "Header",
            "type": "String",
            "optional": false,
            "field": "X-Token",
            "description": "<p>Naskah nusantaras unique token.</p>"
          }
        ]
      }
    },
    "permission": [
      {
        "name": "Naskah nusantara Cant be Accessed permission name : api_Naskah nusantara_update"
      }
    ],
    "parameter": {
      "fields": {
        "Parameter": [
                    {
            "group": "Parameter",
            "type": "String",
            "optional": false,
            "field": "Jenis_bahan",
            "description": "<p>Mandatory jenis_bahan of Naskah nusantaras Input Jenis Bahan Max Length : 20..</p>"
          },
          {
            "group": "Parameter",
            "type": "String",
            "optional": false,
            "field": "Judul",
            "description": "<p>Mandatory judul of Naskah nusantaras Input Judul Max Length : 100..</p>"
          },
          {
            "group": "Parameter",
            "type": "String",
            "optional": false,
            "field": "Pengarang",
            "description": "<p>Mandatory pengarang of Naskah nusantaras Input Pengarang Max Length : 50..</p>"
          },
          {
            "group": "Parameter",
            "type": "String",
            "optional": false,
            "field": "Deskripsi_fisik",
            "description": "<p>Mandatory deskripsi_fisik of Naskah nusantaras Input Deskripsi Fisik Max Length : 255..</p>"
          },
          {
            "group": "Parameter",
            "type": "String",
            "optional": false,
            "field": "Informasi_teknis",
            "description": "<p>Mandatory informasi_teknis of Naskah nusantaras Input Informasi Teknis Max Length : 255..</p>"
          },
          {
            "group": "Parameter",
            "type": "String",
            "optional": false,
            "field": "Subjek",
            "description": "<p>Mandatory subjek of Naskah nusantaras Input Subjek Max Length : 20..</p>"
          },
          {
            "group": "Parameter",
            "type": "String",
            "optional": false,
            "field": "Abstrak",
            "description": "<p>Mandatory abstrak of Naskah nusantaras Input Abstrak Max Length : 150..</p>"
          },
          {
            "group": "Parameter",
            "type": "String",
            "optional": false,
            "field": "Catatan",
            "description": "<p>Mandatory catatan of Naskah nusantaras Input Catatan Max Length : 255..</p>"
          },
          {
            "group": "Parameter",
            "type": "String",
            "optional": false,
            "field": "File_cover",
            "description": "<p>Mandatory file_cover of Naskah nusantaras Input File Cover Max Length : 150..</p>"
          }
        ]
      }
    },
    "success": {
      "fields": {
        "Success 200": [
          {
            "group": "Success 200",
            "type": "Boolean",
            "optional": false,
            "field": "Status",
            "description": "<p>status response api.</p>"
          },
          {
            "group": "Success 200",
            "type": "String",
            "optional": false,
            "field": "Message",
            "description": "<p>message response api.</p>"
          }
        ]
      },
      "examples": [
        {
          "title": "Success-Response:",
          "content": "HTTP/1.1 200 OK",
          "type": "json"
        }
      ]
    },
    "error": {
      "fields": {
        "Error 4xx": [
          {
            "group": "Error 4xx",
            "optional": false,
            "field": "ValidationError",
            "description": "<p>Error validation.</p>"
          }
        ]
      },
      "examples": [
        {
          "title": "Error-Response:",
          "content": "HTTP/1.1 403 Not Acceptable",
          "type": "json"
        }
      ]
    },
    "filename": "application/controllers/api/Naskah nusantara.php",
    "groupTitle": "Naskah nusantara"
  }